Final BIC 260.347
CTTTG 0.31261 0.449005
TATTC 1e-10 1e-10
CTATG 0.0529122 0.0941905
TATTG 0.00908989 0.181498
TTTCG 0.0315874 0.149937
TTACC 0.259138 1e-10
CATCG 0.330553 0.125369
XXXXX 0.00410869 1e-10
