CTACG	0.0662391	0.0662391	0	0
TTATG	0.0814817	0.0814817	0.1	0.107468
CATCC	0.0690648	0.0690648	0	0
TATCG	0.281232	0.281232	0.3	0.280036
CTTTG	0.332685	0.332685	0.6	0.612496
CTACC	0.169297	0.169297	0	0
