5 0 1 2 3 4 GCCCG 2 0 236 1 387
5 0 1 2 3 4 ACGGG 2 0 450 1 516
5 0 1 2 3 4 ACCCG 2 0 104 1 0
5 0 1 2 3 4 GAGCC 2 0 390 1 421
5 0 1 2 3 4 AACCG 2 0 148 1 218
5 0 1 2 3 4 GCGGC 2 0 440 1 225
4 0 1 2 3 GCCC 2 0 21 1 21
4 0 1 2 3 ACGG 2 0 47 1 44
4 0 1 2 3 ACCC 2 0 19 1 0
4 0 1 2 3 GAGC 2 0 42 1 42
4 0 1 2 3 AACC 2 0 19 1 35
4 0 1 2 3 GCGG 2 0 32 1 25
1 0 G 2 0 1586 1 1883
1 0 A 2 0 1591 1 1304
1 1 C 2 0 3769 1 3159
1 1 A 2 0 1315 1 1862
1 2 C 2 0 1572 1 1509
1 2 G 2 0 3549 1 3514
1 3 C 2 0 183 1 187
1 3 G 2 0 142 1 115
1 4 G 2 0 945 1 1037
1 4 C 2 0 736 1 620
4 1 2 3 4 CCCG 2 0 1064 1 623
4 1 2 3 4 CGGG 2 0 934 1 1186
4 1 2 3 4 AGCC 2 0 832 1 1176
4 1 2 3 4 ACCG 2 0 556 1 300
4 1 2 3 4 CGGC 2 0 498 1 556
3 0 1 2 GCC 2 0 170 1 246
3 0 1 2 ACG 2 0 306 1 290
3 0 1 2 ACC 2 0 69 1 0
3 0 1 2 GAG 2 0 210 1 276
3 0 1 2 AAC 2 0 91 1 60
3 0 1 2 GCG 2 0 127 1 136
3 1 2 3 CCC 2 0 96 1 71
3 1 2 3 CGG 2 0 170 1 193
3 1 2 3 AGC 2 0 100 1 116
3 1 2 3 ACC 2 0 29 1 33
3 2 3 4 CCG 2 0 4646 1 4166
3 2 3 4 GGG 2 0 3844 1 4114
3 2 3 4 GCC 2 0 3553 1 3927
3 2 3 4 GGC 2 0 2336 1 1914
2 0 1 GC 2 0 1500 1 1335
2 0 1 AC 2 0 1322 1 1101
2 0 1 GA 2 0 906 1 1210
2 0 1 AA 2 0 363 1 397
2 1 2 CC 2 0 401 1 509
2 1 2 CG 2 0 922 1 1045
2 1 2 AG 2 0 669 1 519
2 1 2 AC 2 0 190 1 188
2 2 3 CC 2 0 399 1 346
2 2 3 GG 2 0 549 1 570
2 2 3 GC 2 0 310 1 298
2 3 4 CG 2 0 2861 1 3390
2 3 4 GG 2 0 2561 1 2870
2 3 4 CC 2 0 1972 1 2069
2 3 4 GC 2 0 1921 1 1152
