4 0 1 2 3 GTTT 2 0 91 1 277
4 0 1 2 3 ATAT 2 0 48 1 24
4 0 1 2 3 GCAC 2 0 54 1 20
4 0 1 2 3 GTAT 2 0 51 1 0
4 0 1 2 3 ACAC 2 0 55 1 36
4 0 1 2 3 ACTT 2 0 21 1 0
3 0 1 2 GTT 2 0 578 1 1783
3 0 1 2 ATA 2 0 434 1 337
3 0 1 2 GCA 2 0 339 1 134
3 0 1 2 GTA 2 0 607 1 0
3 0 1 2 ACA 2 0 303 1 247
3 0 1 2 ACT 2 0 217 1 0
1 2 T 2 0 1790 1 4474
1 2 A 2 0 4488 1 1843
1 3 T 2 0 7841 1 8390
1 3 C 2 0 2574 1 1948
1 4 A 2 0 5644 1 6870
1 4 C 2 0 1702 1 719
3 1 2 3 TTT 2 0 128 1 410
3 1 2 3 TAT 2 0 282 1 39
3 1 2 3 CAC 2 0 163 1 66
3 1 2 3 CTT 2 0 21 1 0
3 2 3 4 TTA 2 0 11 1 23
3 2 3 4 ATA 2 0 16 1 9
2 0 1 GT 2 0 3615 1 5287
2 0 1 AT 2 0 1222 1 787
2 0 1 GC 2 0 685 1 459
2 0 1 AC 2 0 1959 1 690
2 1 2 TT 2 0 654 1 1716
2 1 2 TA 2 0 1048 1 290
2 1 2 CA 2 0 482 1 383
2 1 2 CT 2 0 164 1 0
2 2 3 TT 2 0 1131 1 3319
2 2 3 AT 2 0 2117 1 293
2 2 3 AC 2 0 1300 1 907
2 3 4 TA 2 0 717 1 815
2 3 4 CA 2 0 99 1 97
2 3 4 CC 2 0 117 1 90
2 3 4 TC 2 0 85 1 0
1 0 G 2 0 4410 1 6485
1 0 A 2 0 3115 1 1279
1 1 T 2 0 2910 1 3831
1 1 C 2 0 1888 1 1009