4 0 1 2 3 GTAT 2 0 73 1 0
4 0 1 2 3 GTTT 2 0 78 1 262
4 0 1 2 3 ACAC 2 0 51 1 33
4 0 1 2 3 ACTT 2 0 24 1 0
4 0 1 2 3 GCAC 2 0 26 1 30
4 0 1 2 3 ATAT 2 0 68 1 32
3 0 1 2 GTA 2 0 753 1 0
3 0 1 2 GTT 2 0 594 1 1968
3 0 1 2 ACA 2 0 390 1 178
3 0 1 2 ACT 2 0 220 1 0
3 0 1 2 GCA 2 0 147 1 167
3 0 1 2 ATA 2 0 374 1 188
1 2 A 2 0 4089 1 1703
1 2 T 2 0 2189 1 4614
1 3 T 2 0 7587 1 7966
1 3 C 2 0 2828 1 2372
1 4 A 2 0 5772 1 6795
1 4 C 2 0 1574 1 794
3 1 2 3 TAT 2 0 253 1 41
3 1 2 3 TTT 2 0 142 1 385
3 1 2 3 CAC 2 0 142 1 89
3 1 2 3 CTT 2 0 57 1 0
3 2 3 4 ATA 2 0 14 1 0
3 2 3 4 TTA 2 0 6 1 27
2 0 1 GT 2 0 3592 1 5752
2 0 1 AC 2 0 1457 1 538
2 0 1 GC 2 0 934 1 432
2 0 1 AT 2 0 1498 1 501
2 1 2 TA 2 0 872 1 273
2 1 2 TT 2 0 667 1 1712
2 1 2 CA 2 0 666 1 404
2 1 2 CT 2 0 143 1 0
2 2 3 AT 2 0 1861 1 286
2 2 3 TT 2 0 1582 1 3491
2 2 3 AC 2 0 1105 1 742
2 3 4 TA 2 0 620 1 788
2 3 4 CC 2 0 179 1 111
2 3 4 TC 2 0 86 1 0
2 3 4 CA 2 0 133 1 103
1 0 G 2 0 3982 1 6365
1 0 A 2 0 3543 1 1399
1 1 T 2 0 3046 1 4009
1 1 C 2 0 1752 1 831
