Final BIC 10634.8
TCGCT 0.99 0.99
XXXXX 0.01 0.01
Final BIC 5239.2
TCGCT 0.439559 0.55065
TCACA 0.550441 0.43935
XXXXX 0.01 0.01
Final BIC 2950.4
TCACA 0.338285 0.369994
ACAGT 0.366191 0.139805
TCGCT 0.285524 0.4802
XXXXX 0.01 0.01
Final BIC 2217.22
TCACA 0.289029 0.335254
TCGCT 0.241785 0.438209
ACAGT 0.313609 0.122453
ATACT 0.145577 0.102801
XXXXX 0.01 0.00128367
Final BIC 1617.09
ACAGT 0.278553 0.106726
ACGCA 0.145476 0.109619
ATACT 0.13617 0.0966066
TCGCT 0.179986 0.382713
TCACA 0.249815 0.304336
XXXXX 0.01 1e-10
Final BIC 1034.94
ATACT 0.116197 0.0966032
TCACA 0.216327 0.304331
TCGCT 0.155108 0.382725
ACAGT 0.246044 0.106738
TTGGA 0.141743 1e-10
ACGCA 0.12458 0.109603
XXXXX 1e-10 1e-10
Final BIC 1035.07
ACAGT 0.245552 0.106213
TTACT 1e-10 1e-10
TTGGA 0.141469 1e-10
ACGCA 0.124341 0.109053
ATACT 0.115957 0.0961235
TCGCT 0.154796 0.380824
TCACA 0.215899 0.307787
XXXXX 0.00198644 1e-10
