5 0 1 2 3 4 ACGCA 2 0 370 1 253
5 0 1 2 3 4 ACAGT 2 0 472 1 262
5 0 1 2 3 4 TCACA 2 0 458 1 655
5 0 1 2 3 4 TTGGA 2 0 276 1 0
5 0 1 2 3 4 ATACT 2 0 103 1 187
5 0 1 2 3 4 TCGCT 2 0 275 1 589
4 0 1 2 3 ACGC 2 0 338 1 351
4 0 1 2 3 ACAG 2 0 788 1 297
4 0 1 2 3 TCAC 2 0 718 1 1152
4 0 1 2 3 TTGG 2 0 657 1 0
4 0 1 2 3 ATAC 2 0 498 1 373
4 0 1 2 3 TCGC 2 0 588 1 1229
1 0 A 2 0 3409 1 1910
1 0 T 2 0 3682 1 5253
1 1 C 2 0 3992 1 5107
1 1 T 2 0 1984 1 940
1 2 G 2 0 2752 1 3171
1 2 A 2 0 3593 1 3148
1 3 C 2 0 3753 1 5625
1 3 G 2 0 2476 1 557
1 4 A 2 0 4314 1 4223
1 4 T 2 0 5016 1 5073
4 1 2 3 4 CGCA 2 0 459 1 327
4 1 2 3 4 CAGT 2 0 801 1 379
4 1 2 3 4 CACA 2 0 664 1 925
4 1 2 3 4 TGGA 2 0 383 1 0
4 1 2 3 4 TACT 2 0 480 1 282
4 1 2 3 4 CGCT 2 0 304 1 1201
3 0 1 2 ACG 2 0 651 1 485
3 0 1 2 ACA 2 0 1317 1 729
3 0 1 2 TCA 2 0 1216 1 1538
3 0 1 2 TTG 2 0 802 1 0
3 0 1 2 ATA 2 0 839 1 512
3 0 1 2 TCG 2 0 763 1 2305
3 1 2 3 CGC 2 0 1298 1 2285
3 1 2 3 CAG 2 0 1276 1 662
3 1 2 3 CAC 2 0 1116 1 1320
3 1 2 3 TGG 2 0 583 1 0
3 1 2 3 TAC 2 0 407 1 397
3 2 3 4 GCA 2 0 602 1 715
3 2 3 4 AGT 2 0 1262 1 518
3 2 3 4 ACA 2 0 1422 1 1730
3 2 3 4 GGA 2 0 659 1 0
3 2 3 4 ACT 2 0 557 1 503
3 2 3 4 GCT 2 0 1348 1 2489
2 0 1 AC 2 0 3393 1 2102
2 0 1 TC 2 0 3665 1 6372
2 0 1 TT 2 0 1193 1 0
2 0 1 AT 2 0 1123 1 758
2 1 2 CG 2 0 1964 1 3576
2 1 2 CA 2 0 2887 1 2536
2 1 2 TG 2 0 957 1 0
2 1 2 TA 2 0 814 1 566
2 2 3 GC 2 0 2473 1 4259
2 2 3 AG 2 0 2149 1 583
2 2 3 AC 2 0 2759 1 3683
2 2 3 GG 2 0 1194 1 0
2 3 4 CA 2 0 2723 1 3324
2 3 4 GT 2 0 2611 1 1301
2 3 4 GA 2 0 1093 1 0
2 3 4 CT 2 0 2344 1 4278