Parameters used for simulation/analysis:
Nt: 100
SimSeed: 1
NumGenes: 8
NumHaps: 8
C: 200
filterDataSim: Samfire
OutputFolderString: Example_data_out1/
Reps: 
ImportHapsString: Example_data
Format: Multi
removeMonomorphicSim: 0
